COLUMN_NAME,NULL_INDICATOR,TYPE,SKIP_CONVERSION,SKIP_INSERT,PRESERVE_ORIGINAL
TXN_ID,NOT NULL,NUMBER(10),,,
AGENT_CODE,NOT NULL,VARCHAR2(20),,,
AMOUNT,NOT NULL,"NUMBER(30,5)",,,
DR_CR,NOT NULL,CHAR(2),,,
INVOICED,NOT NULL,NUMBER(1),,,
TNX_DATE,NOT NULL,DATE,,,
NOMINAL_CODE,NOT NULL,NUMBER(3),,,
USER_ID,NOT NULL,VARCHAR2(23),,,
NOTES,,VARCHAR2(255),,,
VERSION,NOT NULL,NUMBER(5),,,
SALES_CHANNEL_CODE,,NUMBER(2),,,
PNR,,VARCHAR2(20),,,
AMOUNT_LOCAL,,"NUMBER(30,2)",,,
CURRENCY_CODE,,CHAR(3),,,
ADJUSTMENT_CARRIER_CODE,,VARCHAR2(10),,,
RECEIPT_NUMBER,,VARCHAR2(50),,,
PRODUCT_TYPE,NOT NULL,CHAR(1),,,
EXT_REFERENCE,,VARCHAR2(20),,,
DEBIT_CREDIT_AGENT,,VARCHAR2(20),,,
CREDIT_REVERSED,NOT NULL,CHAR(1),,,
INVOICE_SEPARATED,NOT NULL,CHAR(1),,,
AERO_PAYMENT_REF_ID,,VARCHAR2(100),,,
AERO_AGENT_CREDIT_REF_ID,,VARCHAR2(100),,,
AEROMART_REF_ID,,VARCHAR2(100),,,