SOURCE_COLUMN_NAME,TARGET_COLUMN_NAME
AERO_AGENT_CREDIT_REF_ID,AERO_AGENT_CREDIT_REF_ID
AERO_PAYMENT_REF_ID,AERO_PAYMENT_REF_ID
AEROMART_REF_ID,AEROMART_REF_ID
AGENT_CODE,AGENT_CODE
AMOUNT,AMOUNT
AMOUNT_PAYCUR,AMOUNT_PAYCUR
DR_CR,DR_CR
EXT_PAYMENT_TXN_ID,TXN_ID
EXT_REFERENCE,EXT_REFERENCE
FIRST_PAYMENT,FIRST_PAYMENT
LCC_UNIQUE_TXN_ID,LCC_UNIQUE_TXN_ID
NOMINAL_CODE,NOMINAL_CODE
PAYCUR_CODE,PAYMENT_CURRENCY_CODE
PNR_PAX_ID,PNR_PAX_ID
REMARKS,REMARKS
SALES_CHANNEL_CODE,SALES_CHANNEL_CODE
TXN_TIMESTAMP,TNX_DATE
USER_ID,USER_ID
VERSION,VERSION
AMOUNT_EXT_BASECUR,ORI_AMOUNT
PAX_SEQUENCE,PAX_SEQUENCE
PNR,PNR