COLUMN_NAME,NULL_INDICATOR,TYPE,SKIP_CONVERSION,SKIP_INSERT,PRESERVE_ORIGINAL
TXN_ID,NOT NULL,NUMBER(10),,Y,
PNR_PAX_ID,NOT NULL,NUMBER(10),,Y,
AMOUNT,NOT NULL,"NUMBER(15,5)",,,Y
DR_CR,NOT NULL,CHAR(2),,,
TNX_DATE,NOT NULL,DATE,,,
NOMINAL_CODE,NOT NULL,NUMBER(3),,,
SETTLEMENT_TNX__ID,,NUMBER(10),,,
VERSION,NOT NULL,NUMBER(5),,,
SALES_CHANNEL_CODE,NOT NULL,NUMBER(2),,,
USER_ID,,VARCHAR2(23),,,
CUSTOMER_ID,,NUMBER(10),,,
AGENT_CODE,,VARCHAR2(20),,,
REMARKS,,VARCHAR2(255),,,
EXT_REFERENCE,,VARCHAR2(255),,,
PAYMENT_MODE_ID,,NUMBER(2),,,
RECEIPT_NO,,VARCHAR2(20),,,
EXTERNAL_AGENT_CODE,,VARCHAR2(20),,,
EXTERNAL_CARRIER_CODE,,CHAR(2),,,
LCC_UNIQUE_TXN_ID,,VARCHAR2(100),,,
AMOUNT_PAYCUR,,"NUMBER(15,5)",Y,,
PAYMENT_CURRENCY_CODE,,CHAR(3),,,
PAYMENT_CARRIER_CODE,,CHAR(2),,,
PAYMENT_TXN_ID,,NUMBER(10),,,
DUMMY_PAYMENT,NOT NULL,CHAR(1),,,
FIRST_PAYMENT,,VARCHAR2(1),,,
SEG_MAPPED,NOT NULL,CHAR(1),,,
DEBIT_CREDIT_AGENT,,VARCHAR2(20),,,
AERO_PAYMENT_REF_ID,,VARCHAR2(100),,,
AERO_AGENT_CREDIT_REF_ID,,VARCHAR2(100),,,
AEROMART_REF_ID,,VARCHAR2(100),,,
PNR,,VARCHAR2(20),,Y,
PAX_SEQUENCE,NOT NULL,NUMBER(3),,Y,
